<svg xmlns="http://www.w3.org/2000/svg" width="3" height="1225.393" viewBox="0 0 3 1225.393">
  <line id="Line_53" data-name="Line 53" y2="1225.393" transform="translate(1.5)" fill="none" stroke="#e6e6e6" stroke-width="3" stroke-dasharray="10 10"/>
</svg>
