{
    "key": "group_5f50b389c0482",
    "title": "Block - Topics overview",
    "fields": [
        {
            "key": "field_5f50b3bea9f0a",
            "label": "Topics",
            "name": "topics",
            "type": "repeater",
            "instructions": "",
            "required": 0,
            "conditional_logic": 0,
            "wrapper": {
                "width": "",
                "class": "",
                "id": ""
            },
            "collapsed": "field_5f50b42aa9f0c",
            "min": 0,
            "max": 0,
            "layout": "block",
            "button_label": "Add topic",
            "sub_fields": [
                {
                    "key": "field_5f50b42aa9f0c",
                    "label": "Topic",
                    "name": "topic",
                    "type": "taxonomy",
                    "instructions": "",
                    "required": 0,
                    "conditional_logic": 0,
                    "wrapper": {
                        "width": "",
                        "class": "",
                        "id": ""
                    },
                    "taxonomy": "topics",
                    "field_type": "select",
                    "allow_null": 0,
                    "add_term": 0,
                    "save_terms": 0,
                    "load_terms": 0,
                    "return_format": "object",
                    "multiple": 0
                }
            ]
        }
    ],
    "location": [
        [
            {
                "param": "block",
                "operator": "==",
                "value": "acf\/topics"
            }
        ]
    ],
    "menu_order": 0,
    "position": "normal",
    "style": "default",
    "label_placement": "top",
    "instruction_placement": "label",
    "hide_on_screen": "",
    "active": 1,
    "description": "",
    "modified": 1599133219
}