{
    "key": "group_5f23e16b77015",
    "title": "Options - Site configuration",
    "fields": [
        {
            "key": "field_5f23e26ff902d",
            "label": "",
            "name": "",
            "type": "message",
            "instructions": "",
            "required": 0,
            "conditional_logic": 0,
            "wrapper": {
                "width": "",
                "class": "",
                "id": ""
            },
            "message": "Configure website specific settings. Certain settings will be the same for all language related websites, but configuring them per-language makes the whole system more flexible.",
            "new_lines": "wpautop",
            "esc_html": 0
        },
        {
            "key": "field_5f4f6ee281505",
            "label": "Custom post type rewrites",
            "name": "custom_post_type_rewrites",
            "type": "group",
            "instructions": "The custom post types (applications, projects, etc) natively in wordpress have a URL rewrite that is hard coded. This option is here to fix this so this can be different for each language.",
            "required": 0,
            "conditional_logic": 0,
            "wrapper": {
                "width": "",
                "class": "",
                "id": ""
            },
            "layout": "block",
            "sub_fields": [
                {
                    "key": "field_5f5b8263e2b2b",
                    "label": "Knowledge Center",
                    "name": "",
                    "type": "tab",
                    "instructions": "",
                    "required": 0,
                    "conditional_logic": 0,
                    "wrapper": {
                        "width": "",
                        "class": "",
                        "id": ""
                    },
                    "placement": "top",
                    "endpoint": 0
                },
                {
                    "key": "field_5f4f6fa481507",
                    "label": "Articles archive",
                    "name": "knowledge_center_articles",
                    "type": "text",
                    "instructions": "The value you specify here will become the value of {articles_archive} in http:\/\/www.domain.nl\/{articles_archive}\/{article_name}",
                    "required": 0,
                    "conditional_logic": 0,
                    "wrapper": {
                        "width": "",
                        "class": "",
                        "id": ""
                    },
                    "default_value": "",
                    "placeholder": "",
                    "prepend": "",
                    "append": "",
                    "maxlength": ""
                },
                {
                    "key": "field_5f5b80966b83c",
                    "label": "Topics archive",
                    "name": "knowledge_center_topics",
                    "type": "text",
                    "instructions": "The value you specify here will become the value of {topics_archive} in http:\/\/www.domain.nl\/{articles_archive}\/{article_name}http:\/\/www.domain.nl\/{articles_archive}\/{topics_archive}\/{topic_name}",
                    "required": 0,
                    "conditional_logic": 0,
                    "wrapper": {
                        "width": "",
                        "class": "",
                        "id": ""
                    },
                    "default_value": "",
                    "placeholder": "",
                    "prepend": "",
                    "append": "",
                    "maxlength": ""
                },
                {
                    "key": "field_5f731e2377c63",
                    "label": "Projects",
                    "name": "",
                    "type": "tab",
                    "instructions": "",
                    "required": 0,
                    "conditional_logic": 0,
                    "wrapper": {
                        "width": "",
                        "class": "",
                        "id": ""
                    },
                    "placement": "top",
                    "endpoint": 0
                },
                {
                    "key": "field_5f6b05507d06a",
                    "label": "Project applications",
                    "name": "project_applications",
                    "type": "text",
                    "instructions": "",
                    "required": 0,
                    "conditional_logic": 0,
                    "wrapper": {
                        "width": "",
                        "class": "",
                        "id": ""
                    },
                    "default_value": "",
                    "placeholder": "",
                    "prepend": "",
                    "append": "",
                    "maxlength": ""
                },
                {
                    "key": "field_5f4f6f6d81506",
                    "label": "Projects",
                    "name": "projects",
                    "type": "text",
                    "instructions": "",
                    "required": 0,
                    "conditional_logic": 0,
                    "wrapper": {
                        "width": "",
                        "class": "",
                        "id": ""
                    },
                    "default_value": "",
                    "placeholder": "",
                    "prepend": "",
                    "append": "",
                    "maxlength": ""
                },
                {
                    "key": "field_5f5b8388e2b2d",
                    "label": "Other",
                    "name": "",
                    "type": "tab",
                    "instructions": "",
                    "required": 0,
                    "conditional_logic": 0,
                    "wrapper": {
                        "width": "",
                        "class": "",
                        "id": ""
                    },
                    "placement": "top",
                    "endpoint": 0
                },
                {
                    "key": "field_5f4f6fb981508",
                    "label": "Features",
                    "name": "features",
                    "type": "text",
                    "instructions": "",
                    "required": 0,
                    "conditional_logic": 0,
                    "wrapper": {
                        "width": "",
                        "class": "",
                        "id": ""
                    },
                    "default_value": "",
                    "placeholder": "",
                    "prepend": "",
                    "append": "",
                    "maxlength": ""
                },
                {
                    "key": "field_5f731e3677c64",
                    "label": "Downloads",
                    "name": "downloads",
                    "type": "text",
                    "instructions": "",
                    "required": 0,
                    "conditional_logic": 0,
                    "wrapper": {
                        "width": "",
                        "class": "",
                        "id": ""
                    },
                    "default_value": "",
                    "placeholder": "",
                    "prepend": "",
                    "append": "",
                    "maxlength": ""
                },
                {
                    "key": "field_5f731e4077c65",
                    "label": "Download categories",
                    "name": "download_types",
                    "type": "text",
                    "instructions": "",
                    "required": 0,
                    "conditional_logic": 0,
                    "wrapper": {
                        "width": "",
                        "class": "",
                        "id": ""
                    },
                    "default_value": "",
                    "placeholder": "",
                    "prepend": "",
                    "append": "",
                    "maxlength": ""
                }
            ]
        },
        {
            "key": "field_5f23e7fd184e8",
            "label": "Special pages",
            "name": "special_pages",
            "type": "group",
            "instructions": "Certain pages within a website are special and should be marked as such. This makes it easier to manage links in e-mails, automatically generated buttons etc. which in turn saves you time and reduces risk of broken links.",
            "required": 0,
            "conditional_logic": 0,
            "wrapper": {
                "width": "",
                "class": "",
                "id": ""
            },
            "layout": "row",
            "sub_fields": [
                {
                    "key": "field_5f23e641e8d73",
                    "label": "Contact",
                    "name": "contact",
                    "type": "page_link",
                    "instructions": "",
                    "required": 0,
                    "conditional_logic": 0,
                    "wrapper": {
                        "width": "",
                        "class": "",
                        "id": ""
                    },
                    "post_type": "",
                    "taxonomy": "",
                    "allow_null": 1,
                    "allow_archives": 0,
                    "multiple": 0
                },
                {
                    "key": "field_5f23e61ae8d72",
                    "label": "Terms & Conditions",
                    "name": "terms_conditions",
                    "type": "page_link",
                    "instructions": "",
                    "required": 0,
                    "conditional_logic": 0,
                    "wrapper": {
                        "width": "",
                        "class": "",
                        "id": ""
                    },
                    "post_type": "",
                    "taxonomy": "",
                    "allow_null": 1,
                    "allow_archives": 0,
                    "multiple": 0
                },
                {
                    "key": "field_5f23e672e8d74",
                    "label": "Privacy Statement",
                    "name": "privacy_statement",
                    "type": "page_link",
                    "instructions": "",
                    "required": 0,
                    "conditional_logic": 0,
                    "wrapper": {
                        "width": "",
                        "class": "",
                        "id": ""
                    },
                    "post_type": "",
                    "taxonomy": "",
                    "allow_null": 1,
                    "allow_archives": 0,
                    "multiple": 0
                },
                {
                    "key": "field_5f23e691e8d75",
                    "label": "Cookies",
                    "name": "cookies",
                    "type": "page_link",
                    "instructions": "",
                    "required": 0,
                    "conditional_logic": 0,
                    "wrapper": {
                        "width": "",
                        "class": "",
                        "id": ""
                    },
                    "post_type": "",
                    "taxonomy": "",
                    "allow_null": 1,
                    "allow_archives": 0,
                    "multiple": 0
                },
                {
                    "key": "field_5f4e900eae049",
                    "label": "Design your own door landingpage",
                    "name": "design_your_door",
                    "type": "page_link",
                    "instructions": "The landingpage for the \"Design your own door\" section.",
                    "required": 0,
                    "conditional_logic": 0,
                    "wrapper": {
                        "width": "",
                        "class": "",
                        "id": ""
                    },
                    "post_type": [
                        "post",
                        "page"
                    ],
                    "taxonomy": "",
                    "allow_null": 1,
                    "allow_archives": 1,
                    "multiple": 0
                },
                {
                    "key": "field_5f608eead9ff4",
                    "label": "Make an appointment form",
                    "name": "appointment",
                    "type": "page_link",
                    "instructions": "",
                    "required": 0,
                    "conditional_logic": 0,
                    "wrapper": {
                        "width": "",
                        "class": "",
                        "id": ""
                    },
                    "post_type": "",
                    "taxonomy": "",
                    "allow_null": 0,
                    "allow_archives": 1,
                    "multiple": 0
                },
                {
                    "key": "field_5f608f16d9ff5",
                    "label": "Plan your trip (Google Maps)",
                    "name": "plan_your_trip",
                    "type": "url",
                    "instructions": "",
                    "required": 0,
                    "conditional_logic": 0,
                    "wrapper": {
                        "width": "",
                        "class": "",
                        "id": ""
                    },
                    "default_value": "",
                    "placeholder": ""
                }
            ]
        }
    ],
    "location": [
        [
            {
                "param": "options_page",
                "operator": "==",
                "value": "acf-options-site-settings"
            }
        ]
    ],
    "menu_order": 0,
    "position": "normal",
    "style": "seamless",
    "label_placement": "top",
    "instruction_placement": "label",
    "hide_on_screen": "",
    "active": 1,
    "description": "",
    "modified": 1601379932
}