{
    "key": "group_5f73344799a3c",
    "title": "Download",
    "fields": [
        {
            "key": "field_5f7334551e47f",
            "label": "File",
            "name": "file",
            "type": "file",
            "instructions": "Upload the file the visitor can download.",
            "required": 0,
            "conditional_logic": 0,
            "wrapper": {
                "width": "",
                "class": "",
                "id": ""
            },
            "return_format": "array",
            "library": "all",
            "min_size": "",
            "max_size": "",
            "mime_types": "pdf,zip,rar,gzip"
        }
    ],
    "location": [
        [
            {
                "param": "post_type",
                "operator": "==",
                "value": "downloads"
            }
        ]
    ],
    "menu_order": 0,
    "position": "side",
    "style": "default",
    "label_placement": "top",
    "instruction_placement": "label",
    "hide_on_screen": [
        "the_content",
        "discussion",
        "comments",
        "author",
        "page_attributes",
        "featured_image",
        "tags"
    ],
    "active": 1,
    "description": "",
    "modified": 1601407680
}